[
{
    "pk": 1,
    "model": "incidents.actiontype",
    "fields": {
        "strength": "stronger",
        "description": "",
        "color": "",
        "slug": "interlock",
        "order": 1,
        "name": "Interlock"
    }
},
{
    "pk": 2,
    "model": "incidents.actiontype",
    "fields": {
        "strength": "stronger",
        "description": "",
        "color": "",
        "slug": "leadership-action",
        "order": 2,
        "name": "Leadership Action"
    }
},
{
    "pk": 3,
    "model": "incidents.actiontype",
    "fields": {
        "strength": "stronger",
        "description": "",
        "color": "",
        "slug": "new-device",
        "order": 3,
        "name": "New Device"
    }
},
{
    "pk": 4,
    "model": "incidents.actiontype",
    "fields": {
        "strength": "stronger",
        "description": "",
        "color": "",
        "slug": "process-simplification",
        "order": 4,
        "name": "Process Simplification"
    }
},
{
    "pk": 5,
    "model": "incidents.actiontype",
    "fields": {
        "strength": "stronger",
        "description": "",
        "color": "",
        "slug": "standardization",
        "order": 5,
        "name": "Standardization"
    }
},
{
    "pk": 6,
    "model": "incidents.actiontype",
    "fields": {
        "strength": "intermediate",
        "description": "",
        "color": "",
        "slug": "checklist-cognitive-aid",
        "order": 6,
        "name": "Checklist cognitive aid"
    }
},
{
    "pk": 7,
    "model": "incidents.actiontype",
    "fields": {
        "strength": "intermediate",
        "description": "",
        "color": "",
        "slug": "distraction-reduction",
        "order": 7,
        "name": "Distraction reduction"
    }
},
{
    "pk": 8,
    "model": "incidents.actiontype",
    "fields": {
        "strength": "intermediate",
        "description": "",
        "color": "",
        "slug": "eliminate-look-alikes",
        "order": 8,
        "name": "Eliminate look-alikes"
    }
},
{
    "pk": 9,
    "model": "incidents.actiontype",
    "fields": {
        "strength": "intermediate",
        "description": "",
        "color": "",
        "slug": "enhanced-documentation",
        "order": 9,
        "name": "Enhanced Documentation"
    }
},
{
    "pk": 10,
    "model": "incidents.actiontype",
    "fields": {
        "strength": "intermediate",
        "description": "",
        "color": "",
        "slug": "readback",
        "order": 10,
        "name": "Readback"
    }
},
{
    "pk": 11,
    "model": "incidents.actiontype",
    "fields": {
        "strength": "intermediate",
        "description": "",
        "color": "",
        "slug": "redundancy",
        "order": 11,
        "name": "Redundancy"
    }
},
{
    "pk": 12,
    "model": "incidents.actiontype",
    "fields": {
        "strength": "intermediate",
        "description": "",
        "color": "",
        "slug": "software-modifications",
        "order": 12,
        "name": "Software modifications"
    }
},
{
    "pk": 13,
    "model": "incidents.actiontype",
    "fields": {
        "strength": "intermediate",
        "description": "",
        "color": "",
        "slug": "staffing-increase-workload-decrease",
        "order": 13,
        "name": "Staffing increase workload decrease"
    }
},
{
    "pk": 14,
    "model": "incidents.actiontype",
    "fields": {
        "strength": "weaker",
        "description": "",
        "color": "",
        "slug": "additional-study",
        "order": 14,
        "name": "Additional Study"
    }
},
{
    "pk": 15,
    "model": "incidents.actiontype",
    "fields": {
        "strength": "weaker",
        "description": "",
        "color": "",
        "slug": "double-check-qa-form-addition",
        "order": 15,
        "name": "Double Check QA Form Addition "
    }
},
{
    "pk": 16,
    "model": "incidents.actiontype",
    "fields": {
        "strength": "weaker",
        "description": "",
        "color": "",
        "slug": "new-procedure-policy",
        "order": 16,
        "name": "New procedure policy"
    }
},
{
    "pk": 17,
    "model": "incidents.actiontype",
    "fields": {
        "strength": "weaker",
        "description": "",
        "color": "",
        "slug": "reminder",
        "order": 17,
        "name": "Reminder"
    }
},
{
    "pk": 18,
    "model": "incidents.actiontype",
    "fields": {
        "strength": "weaker",
        "description": "",
        "color": "",
        "slug": "training",
        "order": 18,
        "name": "Training"
    }
},
{
    "pk": 19,
    "model": "incidents.actiontype",
    "fields": {
        "strength": "weaker",
        "description": "",
        "color": "",
        "slug": "warnings-labels",
        "order": 19,
        "name": "Warnings & Labels"
    }
}
]
