[
{
    "pk": 1, 
    "model": "incidents.operationaltype", 
    "fields": {
        "color": "", 
        "description": "", 
        "order": 1, 
        "name": "Systems Access & Connectivity", 
        "slug": "systems-access-connectivity"
    }
},
{
    "pk": 2, 
    "model": "incidents.operationaltype", 
    "fields": {
        "color": "", 
        "description": "", 
        "order": 2, 
        "name": "Equipment/work area access", 
        "slug": "equipmentwork-area-access"
    }
},
{
    "pk": 3, 
    "model": "incidents.operationaltype", 
    "fields": {
        "color": "", 
        "description": "", 
        "order": 3, 
        "name": "Equipment Warm-Up Procedure", 
        "slug": "equipment-warm-procedure"
    }
},
{
    "pk": 4, 
    "model": "incidents.operationaltype", 
    "fields": {
        "color": "", 
        "description": "", 
        "order": 4, 
        "name": "QA Equipment Issue", 
        "slug": "qa-equipment-issue"
    }
},
{
    "pk": 5, 
    "model": "incidents.operationaltype", 
    "fields": {
        "color": "", 
        "description": "", 
        "order": 5, 
        "name": "Treatment Equipment Issue", 
        "slug": "treatment-equipment-issue"
    }
},
{
    "pk": 6, 
    "model": "incidents.operationaltype", 
    "fields": {
        "color": "", 
        "description": "", 
        "order": 6, 
        "name": "Other", 
        "slug": "other"
    }
}
]
